SIM/axi.vcd
$date
	Sat Dec 27 23:52:45 2025
$end
$version
	QuestaSim Version 2025.2_1
$end
$timescale
	1ns
$end

$scope module axi_top $end
$var reg 1 ! ACLKn $end

$scope module axi_lite_inst $end
$var parameter 32 " ADDRESS_WIDTH $end
$var parameter 32 # DATA_WIDTH $end
$var parameter 32 $ STRB_WIDTH $end
$var wire 1 % ACLKn $end
$var wire 1 & ARESETn $end
$var wire 1 ' AWVALID $end
$var reg 1 ( AWREADY $end
$var wire 1 ) AWADDR [15] $end
$var wire 1 * AWADDR [14] $end
$var wire 1 + AWADDR [13] $end
$var wire 1 , AWADDR [12] $end
$var wire 1 - AWADDR [11] $end
$var wire 1 . AWADDR [10] $end
$var wire 1 / AWADDR [9] $end
$var wire 1 0 AWADDR [8] $end
$var wire 1 1 AWADDR [7] $end
$var wire 1 2 AWADDR [6] $end
$var wire 1 3 AWADDR [5] $end
$var wire 1 4 AWADDR [4] $end
$var wire 1 5 AWADDR [3] $end
$var wire 1 6 AWADDR [2] $end
$var wire 1 7 AWADDR [1] $end
$var wire 1 8 AWADDR [0] $end
$var wire 1 9 WVALID $end
$var reg 1 : WREADY $end
$var wire 1 ; WDATA [31] $end
$var wire 1 < WDATA [30] $end
$var wire 1 = WDATA [29] $end
$var wire 1 > WDATA [28] $end
$var wire 1 ? WDATA [27] $end
$var wire 1 @ WDATA [26] $end
$var wire 1 A WDATA [25] $end
$var wire 1 B WDATA [24] $end
$var wire 1 C WDATA [23] $end
$var wire 1 D WDATA [22] $end
$var wire 1 E WDATA [21] $end
$var wire 1 F WDATA [20] $end
$var wire 1 G WDATA [19] $end
$var wire 1 H WDATA [18] $end
$var wire 1 I WDATA [17] $end
$var wire 1 J WDATA [16] $end
$var wire 1 K WDATA [15] $end
$var wire 1 L WDATA [14] $end
$var wire 1 M WDATA [13] $end
$var wire 1 N WDATA [12] $end
$var wire 1 O WDATA [11] $end
$var wire 1 P WDATA [10] $end
$var wire 1 Q WDATA [9] $end
$var wire 1 R WDATA [8] $end
$var wire 1 S WDATA [7] $end
$var wire 1 T WDATA [6] $end
$var wire 1 U WDATA [5] $end
$var wire 1 V WDATA [4] $end
$var wire 1 W WDATA [3] $end
$var wire 1 X WDATA [2] $end
$var wire 1 Y WDATA [1] $end
$var wire 1 Z WDATA [0] $end
$var wire 1 [ WSTRB [3] $end
$var wire 1 \ WSTRB [2] $end
$var wire 1 ] WSTRB [1] $end
$var wire 1 ^ WSTRB [0] $end
$var reg 1 _ BVALID $end
$var wire 1 ` BREADY $end
$var integer 32 a BRESP $end
$var wire 1 b ARVALID $end
$var reg 1 c ARREADY $end
$var wire 1 d ARADDR [15] $end
$var wire 1 e ARADDR [14] $end
$var wire 1 f ARADDR [13] $end
$var wire 1 g ARADDR [12] $end
$var wire 1 h ARADDR [11] $end
$var wire 1 i ARADDR [10] $end
$var wire 1 j ARADDR [9] $end
$var wire 1 k ARADDR [8] $end
$var wire 1 l ARADDR [7] $end
$var wire 1 m ARADDR [6] $end
$var wire 1 n ARADDR [5] $end
$var wire 1 o ARADDR [4] $end
$var wire 1 p ARADDR [3] $end
$var wire 1 q ARADDR [2] $end
$var wire 1 r ARADDR [1] $end
$var wire 1 s ARADDR [0] $end
$var reg 1 t RVALID $end
$var wire 1 u RREADY $end
$var reg 32 v RDATA [31:0] $end
$var integer 32 w RRESP $end
$var reg 16 x latched_aw_addr [15:0] $end
$var reg 1 y aw_hs $end
$var reg 32 z latched_w_data [31:0] $end
$var reg 4 { latched_w_strb [3:0] $end
$var reg 1 | w_hs $end
$var integer 32 } w_state $end
$var integer 32 ~ w_next_state $end
$var integer 32 !! idx $end
$var reg 16 "! latched_r_addr [15:0] $end
$var reg 1 #! ar_hs $end
$var integer 32 $! ridx $end
$upscope $end

$scope module axi_tb_inst $end
$upscope $end
$upscope $end

$scope begin axi_pkg $end
$var parameter 32 %! ADDRESS_WIDTH $end
$var parameter 32 &! DATA_WIDTH $end
$var parameter 32 '! STRB_WIDTH $end
$var parameter 32 (! DELAY_WIDTH $end
$upscope $end

$scope begin axi_top_sv_unit $end
$upscope $end

$scope begin std $end
$upscope $end

$scope begin axi_if_sv_unit $end
$upscope $end

$scope begin axi_lite_sv_unit $end
$upscope $end

$scope begin axi_tb_sv_unit $end
$upscope $end
$enddefinitions $end
#0
$dumpvars
0!
0(
0:
0_
0c
0t
b0 v
b0 x
0y
b0 z
b0 {
0|
b0 "!
0#!
b10000 %!
b100000 &!
b100 '!
b11 (!
b10000 "
b100000 #
b100 $
b0 a
b0 w
b0 }
b0 ~
b10000 !!
b0 $!
xu
xs
xr
xq
xp
xo
xn
xm
xl
xk
xj
xi
xh
xg
xf
xe
xd
xb
x`
x^
x]
x\
x[
xZ
xY
xX
xW
xV
xU
xT
xS
xR
xQ
xP
xO
xN
xM
xL
xK
xJ
xI
xH
xG
xF
xE
xD
xC
xB
xA
x@
x?
x>
x=
x<
x;
x9
x8
x7
x6
x5
x4
x3
x2
x1
x0
x/
x.
x-
x,
x+
x*
x)
x'
0&
0%
$end
#5
1!
1%
b0 !!
b1 !!
b10 !!
b11 !!
b100 !!
b101 !!
b110 !!
b111 !!
b1000 !!
b1001 !!
b1010 !!
b1011 !!
b1100 !!
b1101 !!
b1110 !!
b1111 !!
b10000 !!
0'
09
0b
0s
0r
0q
0p
0o
0n
0m
0l
0k
0j
0i
0h
0g
0f
0e
0d
0^
0]
0\
0[
0Z
0Y
0X
0W
0V
0U
0T
0S
0R
0Q
0P
0O
0N
0M
0L
0K
0J
0I
0H
0G
0F
0E
0D
0C
0B
0A
0@
0?
0>
0=
0<
0;
08
07
06
05
04
03
02
01
00
0/
0.
0-
0,
0+
0*
0)
0u
0`
#10
0!
0%
#15
1!
1%
1&
#20
0!
0%
#25
1!
1%
#30
0!
0%
#35
1!
1%
#40
0!
0%
#45
1!
1%
#50
0!
0%
#55
1!
1%
#60
0!
0%
#65
1!
1%
#70
0!
0%
#75
1!
1%
#80
0!
0%
#85
1!
1%
18
15
1'
#90
0!
0%
#95
1!
1%
b1001 x
1(
1y
b1 ~
#100
0!
0%
#105
1!
1%
b1 }
0(
0y
#110
0!
0%
#115
1!
1%
1(
1y
#120
0!
0%
#125
1!
1%
0(
0y
1^
1]
1Z
1X
1T
19
#130
0!
0%
#135
1!
1%
b1000101 z
b11 {
1:
1(
1y
1|
b11 ~
#140
0!
0%
#145
1!
1%
b11 }
1_
0(
0y
09
0'
0|
1`
b0 ~
#150
0!
0%
#155
1!
1%
b0 !!
b1 !!
b10 !!
b11 !!
b100 !!
0:
b0 }
0_
0`
#160
0!
0%
#165
1!
1%
#170
0!
0%
#175
1!
1%
#180
0!
0%
#185
1!
1%
0^
0]
1\
1[
1Y
0X
1W
1V
1U
19
#190
0!
0%
#195
1!
1%
b1111011 z
b1100 {
1:
1|
b10 ~
#200
0!
0%
#205
1!
1%
b10 }
17
05
1'
#210
0!
0%
#215
1!
1%
b11 x
1(
1y
b11 ~
09
0|
b10 ~
b11 ~
#220
0!
0%
#225
1!
1%
0:
b11 }
1_
0(
0y
0'
1`
b0 ~
#230
0!
0%
#235
1!
1%
b0 !!
b1 !!
b10 !!
b11 !!
b100 !!
b0 }
0_
0`
#240
0!
0%
#245
1!
1%
#250
0!
0%
#255
1!
1%
1s
1p
1b
#260
0!
0%
#265
1!
1%
b1001 "!
1c
1#!
#270
0!
0%
#275
1!
1%
0c
1t
b1000101 v
0#!
0b
1u
#280
0!
0%
#285
1!
1%
0t
b0 v
#290
0!
0%
#295
1!
1%
0u
#300
0!
0%
#305
1!
1%
#310
0!
0%
#315
1!
1%
#320
0!
0%
#325
1!
1%
#330
0!
0%
#335
1!
1%
0s
1q
0p
1b
#340
0!
0%
#345
1!
1%
b100 "!
1c
1#!
#350
0!
0%
#355
1!
1%
0c
1t
0#!
0b
1u
#360
0!
0%
#365
1!
1%
0t
#370
0!
0%
#375
1!
1%
0u
#380
0!
0%
#385
1!
1%
1s
1r
0q
1b
#390
0!
0%
#395
1!
1%
b11 "!
1c
1#!
#400
0!
0%
#405
1!
1%
0c
1t
0#!
0b
1u
#410
0!
0%
#415
1!
1%
0t
#420
0!
0%
#425
1!
1%
07
16
1'
0u
#430
0!
0%
#435
1!
1%
b101 x
1(
1y
b1 ~
#440
0!
0%
#445
1!
1%
b1 }
0(
0y
#450
0!
0%
#455
1!
1%
1(
1y
#460
0!
0%
#465
1!
1%
0(
0y
#470
0!
0%
#475
1!
1%
1(
1y
#480
0!
0%
#485
1!
1%
0(
0y
1]
0\
0Z
0Y
0T
19
#490
0!
0%
#495
1!
1%
b111000 z
b1010 {
1:
1(
1y
1|
b11 ~
#500
0!
0%
#505
1!
1%
b11 }
1_
0(
0y
09
0'
0|
1`
b0 ~
#510
0!
0%
#515
1!
1%
b0 !!
b1 !!
b10 !!
b11 !!
b100 !!
0:
b0 }
0_
0`
#520
0!
0%
#525
1!
1%
#530
0!
0%
#535
1!
1%
#540
0!
0%
#545
1!
1%
#550
0!
0%
#555
1!
1%
1\
0[
1X
0V
1S
19
#560
0!
0%
#565
1!
1%
b10101100 z
b110 {
1:
1|
b10 ~
#570
0!
0%
#575
1!
1%
b10 }
#580
0!
0%
#585
1!
1%
#590
0!
0%
#595
1!
1%
#600
0!
0%
#605
1!
1%
08
17
06
1'
#610
0!
0%
#615
1!
1%
b10 x
1(
1y
b11 ~
09
0|
b10 ~
b11 ~
#620
0!
0%
#625
1!
1%
0:
b11 }
1_
0(
0y
0'
1`
b0 ~
#630
0!
0%
#635
1!
1%
b0 !!
b1 !!
b10 !!
b11 !!
b100 !!
b0 }
0_
0`
#640
0!
0%
#645
1!
1%
#650
0!
0%
#655
1!
1%
#660
0!
0%
#665
1!
1%
#670
0!
0%
#675
1!
1%
#680
0!
0%
#685
1!
1%
0\
1Z
1Y
0U
19
#690
0!
0%
#695
1!
1%
b10001111 z
b10 {
1:
1|
b10 ~
#700
0!
0%
#705
1!
1%
b10 }
#710
0!
0%
#715
1!
1%
#720
0!
0%
#725
1!
1%
#730
0!
0%
#735
1!
1%
18
07
1'
#740
0!
0%
#745
1!
1%
b1 x
1(
1y
b11 ~
09
0|
b10 ~
b11 ~
#750
0!
0%
#755
1!
1%
0:
b11 }
1_
0(
0y
0'
1`
b0 ~
#760
0!
0%
#765
1!
1%
b0 !!
b1 !!
b10 !!
b11 !!
b100 !!
b0 }
0_
1^
1\
1[
1T
0S
19
0`
#770
0!
0%
#775
1!
1%
b1001111 z
b1111 {
1:
1|
b10 ~
#780
0!
0%
#785
1!
1%
b10 }
#790
0!
0%
#795
1!
1%
08
17
15
1'
#800
0!
0%
#805
1!
1%
b1010 x
1(
1y
b11 ~
09
0|
b10 ~
b11 ~
#810
0!
0%
#815
1!
1%
0:
b11 }
1_
0(
0y
0'
1`
b0 ~
#820
0!
0%
#825
1!
1%
b0 !!
b1 !!
b10 !!
b11 !!
b100 !!
b0 }
0_
0`
#830
0!
0%
#835
1!
1%
#840
0!
0%
#845
1!
1%
#850
0!
0%
#855
1!
1%
#860
0!
0%
#865
1!
1%
1'
0]
0[
0Z
0Y
0X
0W
1V
1U
1S
07
16
05
19
#870
0!
0%
#875
1!
1%
b11110000 z
b101 {
1:
b100 x
1(
1y
1|
b11 ~
#880
0!
0%
#885
1!
1%
b11 }
1_
0(
0y
09
0'
0|
1`
b0 ~
#890
0!
0%
#895
1!
1%
b0 !!
b1 !!
b10 !!
b11 !!
b100 !!
0:
b0 }
0_
0`
#900
0!
0%
#905
1!
1%
0s
1p
1b
#910
0!
0%
#915
1!
1%
b1010 "!
1c
1#!
#920
0!
0%
#925
1!
1%
0c
1t
b1001111 v
0#!
0b
1u
#930
0!
0%
#935
1!
1%
0t
b0 v
#940
0!
0%
#945
1!
1%
0u
0r
0p
1b
#950
0!
0%
#955
1!
1%
b0 "!
1c
1#!
#960
0!
0%
#965
1!
1%
0c
1t
0#!
0b
1u
#970
0!
0%
#975
1!
1%
0t
1]
0\
1[
1Z
0U
19
#980
0!
0%
#985
1!
1%
b11010001 z
b1011 {
1:
1|
b10 ~
0u
18
17
06
1'
#990
0!
0%
#995
1!
1%
b11 x
1(
b10 }
1y
b11 ~
09
0|
b10 ~
b11 ~
#1000
0!
0%
#1005
1!
1%
0:
b11 }
1_
0(
0y
0'
1`
b0 ~
#1010
0!
0%
#1015
1!
1%
b0 !!
b1 !!
b10 !!
b11 !!
b100 !!
b0 }
0_
0`
#1020
0!
0%
#1025
1!
1%
#1030
0!
0%
#1035
1!
1%
1s
1r
1b
#1040
0!
0%
#1045
1!
1%
b11 "!
1c
1#!
#1050
0!
0%
#1055
1!
1%
0c
1t
b11010001 v
0#!
0b
1u
#1060
0!
0%
#1065
1!
1%
0t
b0 v
#1070
0!
0%
#1075
1!
1%
0u
#1080
0!
0%
#1085
1!
1%
#1090
0!
0%
#1095
1!
1%
#1100
0!
0%
#1105
1!
1%
#1110
0!
0%
#1115
1!
1%
#1120
0!
0%
#1125
1!
1%
#1130
0!
0%
#1135
1!
1%
0s
0r
1q
1p
1b
#1140
0!
0%
#1145
1!
1%
b1100 "!
1c
1#!
#1150
0!
0%
#1155
1!
1%
0c
1t
0#!
0b
1u
#1160
0!
0%
#1165
1!
1%
0t
#1170
0!
0%
#1175
1!
1%
0u
#1180
0!
0%
#1185
1!
1%
#1190
0!
0%
#1195
1!
1%
#1200
0!
0%
#1205
1!
1%
#1210
0!
0%
#1215
1!
1%
#1220
0!
0%
#1225
1!
1%
#1230
0!
0%
#1235
1!
1%
#1240
0!
0%
#1245
1!
1%
1s
1r
1b
#1250
0!
0%
#1255
1!
1%
b1111 "!
1c
1#!
#1260
0!
0%
#1265
1!
1%
0c
1t
0#!
0b
1u
#1270
0!
0%
#1275
1!
1%
0t
#1280
0!
0%
#1285
1!
1%
0u
#1290
0!
0%
#1295
1!
1%
#1300
0!
0%
#1305
1!
1%
#1310
0!
0%
#1315
1!
1%
#1320
0!
0%
#1325
1!
1%
#1330
0!
0%
#1335
1!
1%
#1340
0!
0%
#1345
1!
1%
#1350
0!
0%
#1355
1!
1%
08
07
15
1'
#1360
0!
0%
#1365
1!
1%
b1000 x
1(
1y
b1 ~
#1370
0!
0%
#1375
1!
1%
b1 }
0(
0y
#1380
0!
0%
#1385
1!
1%
1(
1y
0^
1\
0[
0Z
0V
0T
0S
19
#1390
0!
0%
#1395
1!
1%
b0 z
b110 {
1:
0(
0y
1|
b11 ~
0'
#1400
0!
0%
#1405
1!
1%
b11 }
1_
09
0|
1`
b0 ~
#1410
0!
0%
#1415
1!
1%
b0 !!
b1 !!
b10 !!
b11 !!
b100 !!
0:
b0 }
0_
0`
#1420
0!
0%
#1425
1!
1%
#1430
0!
0%
#1435
1!
1%
#1440
0!
0%
#1445
1!
1%
1^
0\
1U
1T
19
#1450
0!
0%
#1455
1!
1%
b1100000 z
b11 {
1:
1|
b10 ~
#1460
0!
0%
#1465
1!
1%
b10 }
#1470
0!
0%
#1475
1!
1%
#1480
0!
0%
#1485
1!
1%
#1490
0!
0%
#1495
1!
1%
#1500
0!
0%
#1505
1!
1%
17
16
05
1'
#1510
0!
0%
#1515
1!
1%
b110 x
1(
1y
b11 ~
09
0|
b10 ~
b11 ~
#1520
0!
0%
#1525
1!
1%
0:
b11 }
1_
0(
0y
0'
1`
b0 ~
#1530
0!
0%
#1535
1!
1%
b0 !!
b1 !!
b10 !!
b11 !!
b100 !!
b0 }
0_
0`
#1540
0!
0%
#1545
1!
1%
#1550
0!
0%
#1555
1!
1%
#1560
0!
0%
#1565
1!
1%
0q
1b
#1570
0!
0%
#1575
1!
1%
b1011 "!
1c
1#!
#1580
0!
0%
#1585
1!
1%
0c
1t
0#!
0b
1u
#1590
0!
0%
#1595
1!
1%
0t
#1600
0!
0%
#1605
1!
1%
0u
#1610
0!
0%
#1615
1!
1%
#1620
0!
0%
#1625
1!
1%
#1630
0!
0%
#1635
1!
1%
#1640
0!
0%
#1645
1!
1%
#1650
0!
0%
#1655
1!
1%
#1660
0!
0%
#1665
1!
1%
#1670
0!
0%
#1675
1!
1%
1'
#1680
0!
0%
#1685
1!
1%
1(
1y
b1 ~
#1690
0!
0%
#1695
1!
1%
b1 }
0(
0y
#1700
0!
0%
#1705
1!
1%
1(
1y
1X
1W
0U
19
#1710
0!
0%
#1715
1!
1%
b1001100 z
1:
0(
0y
1|
b11 ~
0'
#1720
0!
0%
#1725
1!
1%
b11 }
1_
09
0|
1`
b0 ~
#1730
0!
0%
#1735
1!
1%
b0 !!
b1 !!
b10 !!
b11 !!
b100 !!
0:
b0 }
0_
0`
#1740
0!
0%
#1745
1!
1%
#1750
0!
0%
#1755
1!
1%
#1760
0!
0%
#1765
1!
1%
#1770
0!
0%
#1775
1!
1%
#1780
0!
0%
#1785
1!
1%
#1790
0!
0%
#1795
1!
1%
07
15
1'
#1800
0!
0%
#1805
1!
1%
b1100 x
1(
1y
b1 ~
#1810
0!
0%
#1815
1!
1%
b1 }
0(
0y
1[
1Y
0X
1V
0T
19
#1820
0!
0%
#1825
1!
1%
b11010 z
b1011 {
1:
1(
1y
1|
b11 ~
#1830
0!
0%
#1835
1!
1%
b11 }
1_
0(
0y
09
0'
0|
1`
b0 ~
#1840
0!
0%
#1845
1!
1%
b0 !!
b1 !!
b10 !!
b11 !!
b100 !!
0:
b0 }
0_
0`
#1850
0!
0%
#1855
1!
1%
#1860
0!
0%
#1865
1!
1%
#1870
0!
0%
#1875
1!
1%
#1880
0!
0%
#1885
1!
1%
#1890
0!
0%
#1895
1!
1%
#1900
0!
0%
#1905
1!
1%
#1910
0!
0%
#1915
1!
1%
0s
0r
1q
0p
1b
#1920
0!
0%
#1925
1!
1%
b100 "!
1c
1#!
#1930
0!
0%
#1935
1!
1%
0c
1t
b11110000 v
0#!
0b
1u
#1940
0!
0%
#1945
1!
1%
0t
b0 v
#1950
0!
0%
#1955
1!
1%
0u
#1960
0!
0%
#1965
1!
1%
#1970
0!
0%
#1975
1!
1%
#1980
0!
0%
#1985
1!
1%
0Y
1X
1U
1S
19
#1990
0!
0%
#1995
1!
1%
b10111100 z
1:
1|
b10 ~
#2000
0!
0%
#2005
1!
1%
b10 }
17
06
05
1'
#2010
0!
0%
#2015
1!
1%
b10 x
1(
1y
b11 ~
09
0|
b10 ~
b11 ~
#2020
0!
0%
#2025
1!
1%
0:
b11 }
1_
0(
0y
0'
1`
b0 ~
#2030
0!
0%
#2035
1!
1%
b0 !!
b1 !!
b10 !!
b11 !!
b100 !!
b0 }
0_
0`
#2040
0!
0%
#2045
1!
1%
#2050
0!
0%
#2055
1!
1%
#2060
0!
0%
#2065
1!
1%
#2070
0!
0%
#2075
1!
1%
#2080
0!
0%
#2085
1!
1%
0q
1b
#2090
0!
0%
#2095
1!
1%
b0 "!
1c
1#!
#2100
0!
0%
#2105
1!
1%
0c
1t
0#!
0b
1u
#2110
0!
0%
#2115
1!
1%
0t
#2120
0!
0%
#2125
1!
1%
0u
#2130
0!
0%
#2135
1!
1%
#2140
0!
0%
#2145
1!
1%
#2150
0!
0%
#2155
1!
1%
#2160
0!
0%
#2165
1!
1%
#2170
0!
0%
#2175
1!
1%
#2180
0!
0%
#2185
1!
1%
19
18
16
15
0^
0]
0[
1Z
1Y
0X
0U
1'
#2190
0!
0%
#2195
1!
1%
b1111 x
1(
b10011011 z
b0 {
1:
1|
1y
b11 ~
#2200
0!
0%
#2205
1!
1%
b11 }
1_
0(
0y
09
0'
0|
1`
b0 ~
#2210
0!
0%
#2215
1!
1%
b0 !!
b1 !!
b10 !!
b11 !!
b100 !!
0:
b0 }
0_
0`
#2220
0!
0%
#2225
1!
1%
#2230
0!
0%
#2235
1!
1%
#2240
0!
0%
#2245
1!
1%
#2250
0!
0%
#2255
1!
1%
#2260
0!
0%
#2265
1!
1%
06
05
1'
#2270
0!
0%
#2275
1!
1%
b11 x
1(
1y
b1 ~
#2280
0!
0%
#2285
1!
1%
b1 }
0(
0y
#2290
0!
0%
#2295
1!
1%
1(
1y
#2300
0!
0%
#2305
1!
1%
0(
0y
#2310
0!
0%
#2315
1!
1%
1(
1y
1^
1]
1\
1[
0Z
0Y
0W
1U
1T
0S
19
#2320
0!
0%
#2325
1!
1%
b1110000 z
b1111 {
1:
0(
0y
1|
b11 ~
0'
#2330
0!
0%
#2335
1!
1%
b11 }
1_
09
0|
1`
b0 ~
#2340
0!
0%
#2345
1!
1%
b0 !!
b1 !!
b10 !!
b11 !!
b100 !!
0:
b0 }
0_
0`
#2350
0!
0%
#2355
1!
1%
#2360
0!
0%
#2365
1!
1%
#2370
0!
0%
#2375
1!
1%
#2380
0!
0%
#2385
1!
1%
#2390
0!
0%
#2395
1!
1%
#2400
0!
0%
#2405
1!
1%
#2410
0!
0%
#2415
1!
1%
1r
1q
1p
1b
#2420
0!
0%
#2425
1!
1%
b1110 "!
1c
1#!
#2430
0!
0%
#2435
1!
1%
0c
1t
0#!
0b
1u
#2440
0!
0%
#2445
1!
1%
0t
#2450
0!
0%
#2455
1!
1%
0u
#2460
0!
0%
#2465
1!
1%
#2470
0!
0%
#2475
1!
1%
#2480
0!
0%
#2485
1!
1%
#2490
0!
0%
#2495
1!
1%
#2500
0!
0%
#2505
1!
1%
#2510
0!
0%
#2515
1!
1%
1s
1b
#2520
0!
0%
#2525
1!
1%
b1111 "!
1c
1#!
#2530
0!
0%
#2535
1!
1%
0c
1t
0#!
0b
1u
#2540
0!
0%
#2545
1!
1%
0t
#2550
0!
0%
#2555
1!
1%
0u
#2560
0!
0%
#2565
1!
1%
#2570
0!
0%
#2575
1!
1%
#2580
0!
0%
#2585
1!
1%
19
16
15
0^
0]
0\
1Z
1Y
1W
0V
0U
1'
#2590
0!
0%
#2595
1!
1%
b1111 x
1(
b1001011 z
b1000 {
1:
1|
1y
b11 ~
#2600
0!
0%
#2605
1!
1%
b11 }
1_
0(
0y
09
0'
0|
1`
b0 ~
#2610
0!
0%
#2615
1!
1%
b0 !!
b1 !!
b10 !!
b11 !!
b100 !!
0:
b0 }
0_
0`
#2620
0!
0%
#2625
1!
1%
1^
1\
0Y
1X
0W
1S
19
#2630
0!
0%
#2635
1!
1%
b11000101 z
b1101 {
1:
1|
b10 ~
#2640
0!
0%
#2645
1!
1%
b10 }
#2650
0!
0%
#2655
1!
1%
#2660
0!
0%
#2665
1!
1%
08
05
1'
#2670
0!
0%
#2675
1!
1%
b110 x
1(
1y
b11 ~
0s
0q
1b
09
0|
b10 ~
b11 ~
#2680
0!
0%
#2685
1!
1%
0:
b1010 "!
1c
b11 }
1_
0(
1#!
0y
0'
1`
b0 ~
#2690
0!
0%
#2695
1!
1%
b0 !!
b1 !!
b10 !!
b11 !!
b100 !!
b0 }
0_
0c
1t
b1001111 v
0#!
0b
1u
0`
#2700
0!
0%
#2705
1!
1%
0t
b0 v
#2710
0!
0%
#2715
1!
1%
0u
#2720
0!
0%
#2725
1!
1%
#2730
0!
0%
#2735
1!
1%
#2740
0!
0%
#2745
1!
1%
#2750
0!
0%
#2755
1!
1%
#2760
0!
0%
#2765
1!
1%
#2770
0!
0%
#2775
1!
1%
#2780
0!
0%
#2785
1!
1%
1q
1b
#2790
0!
0%
#2795
1!
1%
b1110 "!
1c
1#!
#2800
0!
0%
#2805
1!
1%
0c
1t
0#!
0b
1u
#2810
0!
0%
#2815
1!
1%
0t
#2820
0!
0%
#2825
1!
1%
0u
#2830
0!
0%
#2835
1!
1%
#2840
0!
0%
#2845
1!
1%
0r
0q
1b
#2850
0!
0%
#2855
1!
1%
b1000 "!
1c
1#!
#2860
0!
0%
#2865
1!
1%
0c
1t
0#!
0b
1u
#2870
0!
0%
#2875
1!
1%
0t
#2880
0!
0%
#2885
1!
1%
0u
#2890
0!
0%
#2895
1!
1%
#2900
0!
0%
#2905
1!
1%
1b
#2910
0!
0%
#2915
1!
1%
1c
1#!
#2920
0!
0%
#2925
1!
1%
1t
0c
0#!
0b
1u
#2930
0!
0%
#2935
1!
1%
0t
#2940
0!
0%
#2945
1!
1%
0u
#2950
0!
0%
#2955
1!
1%
#2960
0!
0%
#2965
1!
1%
06
1'
#2970
0!
0%
#2975
1!
1%
b10 x
1(
1y
b1 ~
#2980
0!
0%
#2985
1!
1%
b1 }
0(
0y
0^
0\
1W
0T
19
#2990
0!
0%
#2995
1!
1%
b10001101 z
b1000 {
1:
1(
1y
1|
b11 ~
#3000
0!
0%
#3005
1!
1%
b11 }
1_
0(
0y
09
0'
0|
1`
b0 ~
#3010
0!
0%
#3015
1!
1%
b0 !!
b1 !!
b10 !!
b11 !!
b100 !!
0:
b0 }
0_
0`
#3020
0!
0%
#3025
1!
1%
#3030
0!
0%
#3035
1!
1%
#3040
0!
0%
#3045
1!
1%
1s
1b
#3050
0!
0%
#3055
1!
1%
b1001 "!
1c
1#!
#3060
0!
0%
#3065
1!
1%
0c
1t
b1000101 v
0#!
0b
1u
#3070
0!
0%
#3075
1!
1%
0t
b0 v
#3080
0!
0%
#3085
1!
1%
0u
#3090
0!
0%
#3095
1!
1%
#3100
0!
0%
#3105
1!
1%
#3110
0!
0%
#3115
1!
1%
#3120
0!
0%
#3125
1!
1%
1r
1b
#3130
0!
0%
#3135
1!
1%
b1011 "!
1c
1#!
#3140
0!
0%
#3145
1!
1%
0c
1t
0#!
0b
1u
#3150
0!
0%
#3155
1!
1%
0t
#3160
0!
0%
#3165
1!
1%
0u
#3170
0!
0%
#3175
1!
1%
0[
0Z
0X
0W
0S
19
#3180
0!
0%
#3185
1!
1%
b0 z
b0 {
1:
1|
b10 ~
#3190
0!
0%
#3195
1!
1%
b10 }
#3200
0!
0%
#3205
1!
1%
07
15
1'
#3210
0!
0%
#3215
1!
1%
b1000 x
1(
1y
b11 ~
09
0|
b10 ~
b11 ~
#3220
0!
0%
#3225
1!
1%
0:
b11 }
1_
0(
0y
0'
1`
b0 ~
#3230
0!
0%
#3235
1!
1%
b0 !!
b1 !!
b10 !!
b11 !!
b100 !!
b0 }
0_
0`
#3240
0!
0%
#3245
1!
1%
#3250
0!
0%
#3255
1!
1%
#3260
0!
0%
#3265
1!
1%
#3270
0!
0%
#3275
1!
1%
#3280
0!
0%
#3285
1!
1%
#3290
0!
0%
#3295
1!
1%
#3300
0!
0%
#3305
1!
1%
18
17
05
1'
#3310
0!
0%
#3315
1!
1%
b11 x
1(
1y
b1 ~
#3320
0!
0%
#3325
1!
1%
b1 }
0(
0y
#3330
0!
0%
#3335
1!
1%
1(
1y
#3340
0!
0%
#3345
1!
1%
0(
0y
#3350
0!
0%
#3355
1!
1%
1(
1y
#3360
0!
0%
#3365
1!
1%
0(
0y
#3370
0!
0%
#3375
1!
1%
1(
1y
1]
1[
1Z
1X
1W
1V
1U
1S
19
#3380
0!
0%
#3385
1!
1%
b10111101 z
b1010 {
1:
0(
0y
1|
b11 ~
0'
#3390
0!
0%
#3395
1!
1%
b11 }
1_
09
0|
1`
b0 ~
#3400
0!
0%
#3405
1!
1%
b0 !!
b1 !!
b10 !!
b11 !!
b100 !!
0:
b0 }
0_
0`
#3410
0!
0%
#3415
1!
1%
#3420
0!
0%
#3425
1!
1%
0r
1q
1b
#3430
0!
0%
#3435
1!
1%
b1101 "!
1c
1#!
#3440
0!
0%
#3445
1!
1%
0c
1t
0#!
0b
1u
#3450
0!
0%
#3455
1!
1%
0t
#3460
0!
0%
#3465
1!
1%
0u
#3470
0!
0%
#3475
1!
1%
#3480
0!
0%
#3485
1!
1%
#3490
0!
0%
#3495
1!
1%
#3500
0!
0%
#3505
1!
1%
0[
0Z
1Y
0W
0S
19
#3510
0!
0%
#3515
1!
1%
b110110 z
b10 {
1:
1|
b10 ~
#3520
0!
0%
#3525
1!
1%
b10 }
#3530
0!
0%
#3535
1!
1%
#3540
0!
0%
#3545
1!
1%
#3550
0!
0%
#3555
1!
1%
#3560
0!
0%
#3565
1!
1%
08
07
1'
#3570
0!
0%
#3575
1!
1%
b0 x
1(
1y
b11 ~
09
0|
b10 ~
b11 ~
#3580
0!
0%
#3585
1!
1%
0:
b11 }
1_
0(
0y
0'
1`
b0 ~
#3590
0!
0%
#3595
1!
1%
b0 !!
b1 !!
b10 !!
b11 !!
b100 !!
b0 }
0_
0`
#3600
0!
0%
#3605
1!
1%
#3610
0!
0%
#3615
1!
1%
#3620
0!
0%
#3625
1!
1%
#3630
0!
0%
#3635
1!
1%
#3640
0!
0%
#3645
1!
1%
#3650
0!
0%
#3655
1!
1%
#3660
0!
0%
#3665
1!
1%
0s
1r
0q
1b
#3670
0!
0%
#3675
1!
1%
b1010 "!
1c
1#!
#3680
0!
0%
#3685
1!
1%
0c
1t
b1001111 v
0#!
0b
1u
#3690
0!
0%
#3695
1!
1%
0t
b0 v
#3700
0!
0%
#3705
1!
1%
0u
#3710
0!
0%
#3715
1!
1%
#3720
0!
0%
#3725
1!
1%
#3730
0!
0%
#3735
1!
1%
#3740
0!
0%
#3745
1!
1%
#3750
0!
0%
#3755
1!
1%
#3760
0!
0%
#3765
1!
1%
#3770
0!
0%
#3775
1!
1%
0p
1b
#3780
0!
0%
#3785
1!
1%
b10 "!
1c
1#!
#3790
0!
0%
#3795
1!
1%
0c
1t
b10111100 v
0#!
0b
1u
#3800
0!
0%
#3805
1!
1%
0t
b0 v
#3810
0!
0%
#3815
1!
1%
0u
#3820
0!
0%
#3825
1!
1%
#3830
0!
0%
#3835
1!
1%
0r
1p
1b
#3840
0!
0%
#3845
1!
1%
b1000 "!
1c
1#!
#3850
0!
0%
#3855
1!
1%
0c
1t
0#!
0b
1u
#3860
0!
0%
#3865
1!
1%
0t
#3870
0!
0%
#3875
1!
1%
0u
#3880
0!
0%
#3885
1!
1%
#3890
0!
0%
#3895
1!
1%
17
15
1'
#3900
0!
0%
